id,id_m_devices,iac,power,date,time
113,22,0.135151,29.7332,2021-08-16,22:59:05
124,22,0.129197,28.42327,2021-08-16,23:04:05
136,22,0.135804,29.8769,2021-08-16,23:09:05
148,22,0.134806,29.65725,2021-08-16,23:14:05
160,22,0.133733,29.42119,2021-08-16,23:19:05
172,22,0.127027,27.94597,2021-08-16,23:24:05
184,22,0.145188,31.94132,2021-08-16,23:29:05
196,22,0.152718,33.59788,2021-08-16,23:34:12
208,22,0.130905,28.79912,2021-08-16,23:39:05
220,22,0.132572,29.16587,2021-08-16,23:44:05
232,22,0.130456,28.7003,2021-08-16,23:49:05
2074,22,0.036524,8.035315,2021-08-18,19:49:02
199968,22,0.144258,31.73687,2021-11-07,20:10:04
199985,22,0.155697,34.25344,2021-11-07,20:17:37
199995,22,0.13324,29.31288,2021-11-07,20:22:07
199997,22,0.136266,29.97849,2021-11-07,20:22:42
199999,22,0.12692,27.92249,2021-11-07,20:23:10
200001,22,0.133173,29.29809,2021-11-07,20:23:42
200003,22,0.134683,29.63026,2021-11-07,20:24:08
200010,22,0.154803,34.05657,2021-11-07,20:27:22
200012,22,0.151739,33.38257,2021-11-07,20:27:54
200055,22,426,93720,2021-11-07,20:48:49
200057,22,409,89980,2021-11-07,20:49:20
200059,22,432,95040,2021-11-07,20:49:51
200061,22,406,89320,2021-11-07,20:50:22
200063,22,438,96360,2021-11-07,20:50:53
